…
### Fix the year by removing MM-DD

```r
    data_in$year_fix <- year(data_in$year)
```

### Explore the variables by class distribution

```r
    data_in %>% group_by(class) %>% 
                summarise(n = n()) %>% 
                arrange(desc(n))
```

    ## # A tibble: 466 × 2
    ##    class     n
    ##    <chr> <int>
    ## 1     L6  8285
    ## 2     H5  7142
    ## 3     L5  4796
    ## 4     H6  4528
    ## 5     H4  4211
    ## 6    LL5  2766
    ## 7    LL6  2043
    ## 8     L4  1253
    ## 9   H4/5   428
    ## 10   CM2   416
    ## # ... with 456 more rows
…
